<svg width="24" height="24" viewBox="0 0 24 24" fill="none" xmlns="http://www.w3.org/2000/svg">
<path d="M6.23906 6L7.34531 19.6266C7.34531 20.3859 7.95937 21 8.71875 21H15.3281C16.0875 21 16.7016 20.3859 16.7016 19.6266L17.7938 6H6.23906ZM9.12656 18.4219L8.8125 7.5H9.67969L10.0031 18.4219H9.12656ZM12.4219 18.4219H11.5781V7.5H12.4219V18.4219ZM14.8734 18.4219H14.0016L14.3203 7.5H15.1875L14.8734 18.4219ZM17.0625 4.3125H15.375L14.1422 3.23438C13.9688 3.08437 13.7484 3 13.5234 3H10.4859C10.2562 3 10.0312 3.08437 9.85781 3.23438L8.625 4.3125H6.9375C6.1125 4.3125 5.53125 4.70625 5.53125 5.53125H18.4688C18.4688 4.70625 17.8875 4.3125 17.0625 4.3125Z" fill="#A1AAB6"/>
</svg>
