<svg width="48" height="17" viewBox="0 0 48 17" fill="none" xmlns="http://www.w3.org/2000/svg">
<path d="M18.6891 12.8422L20.6631 10.7229V15.0347L18.6891 12.8422ZM12.4082 11.255V12.234H15.229V13.3322H12.4082V14.4024H15.5667L17.0347 12.8222L15.6288 11.257H12.4072V11.255H12.4082ZM47.3586 12.0626C47.7975 12.5166 47.9999 13.0747 47.9999 13.8242C47.9999 15.4425 46.9147 16.4095 45.094 16.4095H42.5909C42.2231 16.4095 41.9085 16.186 41.7752 15.8694C41.2892 16.2141 40.6399 16.4095 39.8433 16.4095H37.3401C37.1978 16.4095 37.0716 16.3704 36.9544 16.3133C36.8371 16.3704 36.7079 16.4095 36.5686 16.4095H32.2788C32.1365 16.4095 32.0073 16.3684 31.887 16.3093C31.7688 16.3704 31.6385 16.4095 31.4942 16.4095H30.2046C29.7156 16.4095 29.3158 16.0127 29.3158 15.5227V14.7401C29.3178 14.6639 29.3178 14.5487 29.3138 14.4525C29.2536 14.4485 29.1705 14.4445 29.0522 14.4445H28.5682V15.5227C28.5682 16.0117 28.1714 16.4095 27.6794 16.4095H26.3878C25.8968 16.4095 25.499 16.0127 25.499 15.5227V14.1549C25.042 14.4265 24.4137 14.6048 23.545 14.6048H22.8305V15.5227C22.8305 16.0117 22.4337 16.4095 21.9417 16.4095H19.4436C19.1901 16.4095 18.9476 16.3023 18.7792 16.1119L17.8483 15.0648L16.8673 16.1259C16.699 16.3083 16.4635 16.4115 16.216 16.4115H11.1246C10.6346 16.4115 10.2368 16.0147 10.2368 15.5227V10.1447C10.2368 9.65371 10.6336 9.2559 11.1246 9.2559H16.2932C16.5467 9.2559 16.7862 9.36011 16.9535 9.5515L17.8874 10.5886L18.8604 9.53948C19.0298 9.35711 19.2652 9.2569 19.5127 9.2569H23.6191C24.518 9.2569 25.1503 9.45631 25.6022 9.74991C25.7485 9.46031 26.0411 9.2569 26.3868 9.2569H29.3558C30.0372 9.2569 30.6986 9.28195 31.3209 9.61463C31.385 9.65271 31.4301 9.70281 31.4912 9.7459C31.6385 9.45831 31.9301 9.2569 32.2758 9.2569H36.5646C36.8972 9.2569 37.1748 9.44528 37.3291 9.72085C37.754 9.43226 38.3121 9.2569 39.0206 9.2569H41.5958C41.9836 9.2569 42.3003 9.50541 42.4235 9.85011C42.8644 9.49338 43.4697 9.2569 44.2723 9.2569H46.8476C47.3386 9.2569 47.7364 9.65371 47.7364 10.1457V11.2911C47.7364 11.6037 47.574 11.8783 47.3305 12.0366C47.3396 12.0436 47.3496 12.0536 47.3586 12.0626ZM25.7845 11.9163C25.7845 10.4273 24.6372 10.1417 23.6181 10.1417H19.5117L17.8764 11.9053L16.2932 10.1417H11.1246V15.5207H16.216L17.8614 13.7411L19.4446 15.5207H21.9427V13.716H23.546C24.6703 13.719 25.7845 13.4084 25.7845 11.9163ZM30.6535 13.0236C30.9902 12.8883 31.5644 12.4504 31.5644 11.5907C31.5644 10.9784 31.3088 10.6417 30.904 10.3972C30.4801 10.1718 30.0072 10.1447 29.3578 10.1447H26.3888V15.5227H27.6804V13.5597H29.0532C29.5242 13.5597 29.8098 13.6048 29.9941 13.7962C30.2346 14.0467 30.2036 14.5267 30.2036 14.8493V15.5227H31.4932V14.4565C31.4872 13.9825 31.4631 13.738 31.2798 13.4755C31.1715 13.3172 30.9381 13.1278 30.6535 13.0236ZM36.5666 10.1447H32.2778V15.5227H36.5666V14.4074L33.5564 14.4014V13.3332H36.4924V12.235H33.5564V11.256H36.5666V10.1447ZM41.8564 13.8232C41.8564 13.2711 41.7231 12.9424 41.4706 12.6829C41.181 12.3893 40.701 12.2691 40.0046 12.25L39.3142 12.23C39.0947 12.23 38.9504 12.2159 38.8131 12.1688C38.6518 12.1067 38.5326 11.9714 38.5326 11.768C38.5326 11.5977 38.5857 11.4684 38.727 11.3802C38.8552 11.2921 39.0065 11.282 39.242 11.282H41.5998V10.1377H39.0246C37.6758 10.1377 37.1868 10.9564 37.1868 11.739C37.1868 13.4394 38.6929 13.3633 39.8934 13.4024C40.1188 13.4024 40.2511 13.4394 40.3513 13.5216C40.4415 13.5968 40.5076 13.72 40.5076 13.8763C40.5076 14.0226 40.4455 14.1459 40.3573 14.228C40.2491 14.3313 40.0757 14.3613 39.8332 14.3613H37.3411V15.5167H39.8442C41.1359 15.5227 41.8564 14.9826 41.8564 13.8232ZM47.1101 13.8232C47.1101 13.2711 46.9748 12.9424 46.7243 12.6829C46.4347 12.3893 45.9537 12.2691 45.2563 12.25L44.5659 12.23C44.3464 12.23 44.2032 12.2159 44.0649 12.1688C43.9055 12.1067 43.7853 11.9714 43.7853 11.768C43.7853 11.5977 43.8374 11.4684 43.9787 11.3802C44.106 11.2921 44.2583 11.282 44.4947 11.282H46.8516V10.1377H44.2763C42.9275 10.1377 42.4385 10.9564 42.4385 11.739C42.4385 13.4394 43.9436 13.3633 45.1451 13.4024C45.3715 13.4024 45.5038 13.4394 45.603 13.5216C45.6932 13.5968 45.7593 13.72 45.7593 13.8763C45.7593 14.0226 45.6972 14.1459 45.609 14.228C45.5018 14.3313 45.3285 14.3613 45.086 14.3613H42.5929V15.5167H45.096C46.3876 15.5227 47.1101 14.9826 47.1101 13.8232ZM23.6191 11.255H21.9437V12.6248H23.6031C24.0971 12.6248 24.4047 12.3803 24.4047 11.9163C24.4037 11.4434 24.0841 11.255 23.6191 11.255ZM24.3747 3.09131C24.54 3.00413 24.6392 2.81475 24.6392 2.58027C24.6392 2.3498 24.536 2.18346 24.3697 2.1053C24.2173 2.01912 23.9829 2.0081 23.7604 2.0081H22.1772V3.20154H23.7394C23.9869 3.20154 24.1953 3.19753 24.3747 3.09131ZM29.8769 11.3542C29.7206 11.261 29.4901 11.257 29.2637 11.257H27.6804V12.4644H29.2426C29.4931 12.4644 29.7066 12.4564 29.8799 12.3552C30.0463 12.253 30.1455 12.0696 30.1455 11.8382C30.1424 11.6067 30.0432 11.4404 29.8769 11.3542ZM34.6246 1.80168L33.7418 3.94505H35.5164L34.6246 1.80168ZM3.24052 3.94505H4.9931L4.1133 1.80168L3.24052 3.94505ZM10.4342 7.15361C10.0835 7.15361 9.76484 6.94618 9.62255 6.62553L9.45421 6.24375V6.26479C9.45421 6.75479 9.0574 7.1526 8.56639 7.1526H5.95206C5.59132 7.1526 5.26666 6.93516 5.13038 6.60248L4.86283 5.95315H3.37379L3.10224 6.60649C2.96496 6.93716 2.6413 7.15361 2.28457 7.15361H0.887717C0.589107 7.15361 0.310539 7.0033 0.146203 6.75479C-0.0171304 6.50428 -0.0461898 6.19164 0.0720516 5.91608L2.37275 0.538099C2.51304 0.212434 2.83369 0 3.18942 0H5.09731C5.45304 0 5.77369 0.211432 5.91398 0.537097L6.39596 1.66139V0.888815C6.39596 0.398814 6.79277 0.00100205 7.28378 0.00100205H9.38206C9.72676 0.00100205 10.0424 0.202413 10.1887 0.517056L11.0294 2.34278L11.793 0.543109C11.9323 0.214438 12.2539 0.00100205 12.6086 0.00100205H14.751C14.9314 0.00100205 15.0887 0.0681391 15.23 0.160327C15.3703 0.0681391 15.5276 0.00100205 15.709 0.00100205H20.0017C20.1681 0.00100205 20.3154 0.0591207 20.4467 0.138282C20.5809 0.0591207 20.7262 0.00100205 20.8926 0.00100205H23.8486C24.6132 0.00100205 25.2475 0.0280573 25.8507 0.376769C25.9128 0.412843 25.9549 0.460941 26.01 0.501023C26.1563 0.208426 26.4499 0.00100205 26.8006 0.00100205H28.1133C28.5562 0.00100205 28.9079 0.331677 28.9741 0.755543C29.5492 0.256524 30.3308 0.00100205 31.387 0.00100205H32.6285C32.8279 0.00100205 33.0133 0.066135 33.1606 0.177362C33.3089 0.065133 33.4953 0.00100205 33.6907 0.00100205H35.6166C35.9713 0.00100205 36.292 0.213436 36.4313 0.539101L36.9032 1.64336V0.888815C36.9032 0.398814 37.3001 0.00100205 37.7911 0.00100205H39.7501C40.0597 0.00100205 40.3473 0.164336 40.5096 0.429878L41.1199 1.44295V0.887813C41.1199 0.397812 41.5167 0 42.0087 0H43.3244C43.8134 0 44.2122 0.397812 44.2122 0.887813V6.26579C44.2122 6.75579 43.8154 7.15361 43.3244 7.15361H41.5046C41.192 7.15361 40.9044 6.99027 40.7431 6.72473L39.9545 5.41706V6.26579C39.9545 6.75579 39.5577 7.15361 39.0667 7.15361H36.4513C36.0916 7.15361 35.7689 6.93716 35.6317 6.60749L35.3601 5.95416H33.8791L33.6175 6.59847C33.4823 6.93416 33.1576 7.15461 32.7989 7.15461H31.2928C30.7216 7.15461 29.6955 7.0514 28.967 6.43915C28.8839 6.84397 28.5432 7.15461 28.1123 7.15461H26.7996C26.6533 7.15461 26.5211 7.11052 26.3978 7.04739C26.2766 7.10952 26.1453 7.15461 26 7.15461H24.7033C24.2163 7.15461 23.8185 6.7608 23.8145 6.27381L23.8095 5.59542L23.8115 5.47718C23.8115 5.40504 23.8135 5.29681 23.8075 5.20563C23.7484 5.20162 23.6692 5.19861 23.558 5.19861H23.067V6.2668C23.067 6.7568 22.6702 7.15461 22.1792 7.15461H20.8926C20.7262 7.15461 20.5799 7.09649 20.4467 7.01733C20.3154 7.09649 20.1681 7.15461 20.0017 7.15461H15.709C15.5276 7.15461 15.3703 7.08647 15.23 6.99528C15.0887 7.08647 14.9314 7.15461 14.751 7.15461H13.4333C12.9423 7.15461 12.5455 6.7578 12.5455 6.2678V6.24575L12.3752 6.62653C12.2329 6.94819 11.9162 7.15561 11.5635 7.15561L10.4342 7.15361ZM28.7406 3.61739C28.7406 4.59438 28.9751 5.21364 29.43 5.67058C29.8769 6.12651 30.6655 6.26479 31.2898 6.26479H32.7949L33.2778 5.06534H35.9493L36.4503 6.26479H39.0657V2.22855L41.5036 6.26479H43.3244V0.886811H42.0087V4.63246L39.7501 0.886811H37.7911V5.9732L35.6166 0.886811H33.6907L31.875 5.11544H31.2988C30.9631 5.11544 30.6024 5.05131 30.403 4.83788C30.1625 4.56632 30.0483 4.15148 30.0483 3.5763C30.0483 3.01215 30.1976 2.58428 30.417 2.35781C30.6715 2.1083 30.9371 2.03916 31.405 2.03916H32.6225V0.886811H31.381C30.4932 0.886811 29.8428 1.08421 29.429 1.51309C28.8819 2.09027 28.7406 2.81976 28.7406 3.61739ZM31.412 2.92698C31.1104 2.92698 31.0794 2.95804 31.0423 2.99411C31.0303 3.01115 30.9401 3.20454 30.9401 3.5773C30.9401 3.94606 30.9992 4.12342 31.0423 4.20358C31.0884 4.21561 31.1715 4.22964 31.2948 4.22964L31.8529 2.92798L31.412 2.92698ZM26.8006 6.26479H28.1133V0.886811H26.8006V6.26479ZM20.8916 6.26479H22.1782V4.3088H23.556C24.0189 4.3088 24.3055 4.34988 24.4929 4.53827C24.7264 4.7978 24.6953 5.26274 24.6953 5.5854L24.7013 6.26379H25.998V5.20863C25.998 4.72865 25.9669 4.49017 25.7845 4.22262C25.6703 4.0663 25.4298 3.87792 25.1483 3.7697C25.4809 3.63743 26.0531 3.19352 26.0531 2.33677C26.0531 1.73655 25.8096 1.38583 25.4028 1.14534C24.9879 0.904847 24.5039 0.887813 23.8466 0.887813H20.8906V6.26479H20.8916ZM15.708 6.26479H20.0007V5.15252H16.9926V4.07833H19.9296V2.97608H16.9926V2.0071H20.0007V0.886811H15.708V6.26479ZM10.4342 6.26479H11.5635L13.4273 2.05319L13.4323 6.26479H14.75V0.886811H12.6076L11.0635 4.53526L9.38106 0.886811H7.28277V5.97921L5.09531 0.886811H3.18741L0.885713 6.26479H2.28256L2.78158 5.06534H5.45705L5.95106 6.26479H8.5674V2.04918L10.4342 6.26479Z" fill="#656E7A"/>
</svg>
