<svg width="14" height="14" viewBox="0 0 14 14" fill="none" xmlns="http://www.w3.org/2000/svg">
<path d="M7.17432 2.41397L11.5829 6.81295" stroke="#A1AAB6" stroke-linecap="round" stroke-linejoin="round"/>
<path d="M8.04031 3.25186L2.58205 8.69822C2.05107 9.22545 1.87679 10.0131 2.13594 10.7144L1.11252 11.7356C0.962493 11.8883 0.962493 12.1328 1.11252 12.2855L1.71608 12.8877C1.86914 13.0374 2.11409 13.0374 2.26715 12.8877L3.29057 11.8665C3.99078 12.1073 4.76735 11.9238 5.28494 11.3952L10.7432 5.94886" stroke="#A1AAB6" stroke-linecap="round" stroke-linejoin="round"/>
<path d="M10.7429 5.94885L12.5274 4.16831V4.16831C13.223 3.37294 13.1408 2.16546 12.3437 1.47132C11.622 0.842893 10.5461 0.842893 9.82447 1.47132L8.04004 3.25186" stroke="#A1AAB6" stroke-linecap="round" stroke-linejoin="round"/>
</svg>
