<svg width="24" height="24" viewBox="0 0 24 24" fill="none" xmlns="http://www.w3.org/2000/svg">
<path d="M17.2734 11.25H12.75V6.72656C12.75 6.31406 12.4125 5.97656 12 5.97656C11.5875 5.97656 11.25 6.31406 11.25 6.72656V11.25H6.72656C6.31406 11.25 5.97656 11.5875 5.97656 12C5.97656 12.2063 6.06094 12.3937 6.19687 12.5297C6.33281 12.6656 6.52031 12.75 6.72656 12.75H11.25V17.2734C11.25 17.4797 11.3344 17.6672 11.4703 17.8031C11.6062 17.9391 11.7937 18.0234 12 18.0234C12.4125 18.0234 12.75 17.6859 12.75 17.2734V12.75H17.2734C17.6859 12.75 18.0234 12.4125 18.0234 12C18.0234 11.5875 17.6859 11.25 17.2734 11.25Z" fill="#fff"/>
</svg>
