<svg width="16" height="14" viewBox="0 0 16 14" fill="none" xmlns="http://www.w3.org/2000/svg">
<path d="M15.3752 7.03438C15.2939 6.95312 15.1877 6.90938 15.0752 6.90938C14.9627 6.90938 14.8564 6.95312 14.7752 7.03438L14.3689 7.44063C14.5033 5.50938 13.7596 3.6125 12.3283 2.28437C11.1533 1.19375 9.61582 0.59375 8.00332 0.59375C7.16895 0.59375 6.35332 0.753125 5.58457 1.06562C4.78769 1.39062 4.0752 1.86563 3.46895 2.48125C3.05645 2.9 2.7002 3.37187 2.41895 3.88125C2.35957 3.9875 2.34707 4.1125 2.38145 4.22813C2.41582 4.34375 2.5002 4.44063 2.60645 4.49375C2.66895 4.525 2.7377 4.54063 2.80645 4.54063C2.96895 4.54063 3.11582 4.45312 3.19394 4.3125C3.44082 3.86562 3.7502 3.45312 4.1127 3.09062C4.6377 2.56562 5.24707 2.15937 5.92832 1.88125C6.5877 1.6125 7.28457 1.47813 7.99707 1.47813C8.7127 1.47813 9.40957 1.6125 10.0689 1.88125C10.7502 2.15937 11.3627 2.56562 11.8877 3.09375C12.5221 3.73125 12.9939 4.51875 13.2564 5.375C13.4752 6.09062 13.5439 6.85313 13.4627 7.6L12.8721 7.02188C12.7939 6.94688 12.6908 6.90312 12.5814 6.90312C12.4721 6.90312 12.3658 6.94687 12.2877 7.025C12.1252 7.1875 12.1252 7.45 12.2877 7.6125L13.6252 8.95312C13.6846 9.0125 13.7627 9.04375 13.8439 9.04375C13.9252 9.04375 14.0033 9.0125 14.0627 8.95312L15.3783 7.63437C15.5408 7.46875 15.5408 7.2 15.3752 7.03438ZM13.3939 9.49687C13.3314 9.46562 13.2627 9.45 13.1939 9.45C13.0314 9.45 12.8846 9.5375 12.8064 9.67813C12.5596 10.125 12.2502 10.5375 11.8877 10.9C11.3627 11.425 10.7533 11.8344 10.0689 12.1094C9.40957 12.3781 8.7127 12.5125 7.99707 12.5125C7.28145 12.5125 6.58457 12.3781 5.92832 12.1094C5.24707 11.8313 4.63457 11.425 4.10957 10.9C2.93457 9.71875 2.35957 8.05937 2.53769 6.40312L3.11269 6.98125C3.1877 7.05625 3.28769 7.09688 3.39394 7.09688C3.5002 7.09688 3.60019 7.05625 3.67519 6.98125L3.71582 6.94063C3.86895 6.7875 3.86895 6.53437 3.71582 6.38125L2.3752 5.0375C2.31582 4.97813 2.2377 4.94688 2.15645 4.94688C2.0752 4.94688 1.99707 4.97813 1.9377 5.0375L0.625195 6.35938C0.45957 6.525 0.45957 6.79375 0.625195 6.95937C0.706445 7.04063 0.812695 7.08438 0.925195 7.08438C1.0377 7.08438 1.14395 7.04063 1.2252 6.95937L1.63145 6.55C1.5752 7.35625 1.67207 8.175 1.9127 8.94063C2.22207 9.92188 2.7502 10.7937 3.48457 11.5281C4.09395 12.1406 4.80332 12.6125 5.59707 12.9375C6.3627 13.25 7.17207 13.4062 8.0002 13.4062C8.82832 13.4062 9.63769 13.2469 10.4033 12.9375C11.1971 12.6156 11.9064 12.1406 12.5158 11.5281C12.9377 11.1062 13.2971 10.6281 13.5846 10.1094C13.6439 10.0031 13.6564 9.87813 13.6221 9.7625C13.5846 9.64687 13.5033 9.55 13.3939 9.49687Z" fill="white"/>
</svg>
