<svg width="54" height="44" viewBox="0 0 54 44" fill="none" xmlns="http://www.w3.org/2000/svg">
<path opacity="0.5" d="M32.2642 8.94879C32.2642 6.27025 33.2264 4.07873 35.1509 2.37421C36.9623 0.791439 39.3962 5.34058e-05 42.4528 5.34058e-05C45.3962 5.34058e-05 48.0566 1.52195 50.434 4.56573C52.8113 7.60952 54 11.5664 54 16.4365C54 21.3066 51.9623 26.2984 47.8868 31.4119C43.8113 36.5255 37.5849 40.5433 29.2075 43.4653L27.6792 39.4475C39.9057 33.4817 46.0189 25.4461 46.0189 15.3407C44.434 17.167 42.5094 18.0801 40.2453 18.0801C37.9811 18.0801 36.1132 17.2279 34.6415 15.5234C33.0566 13.8188 32.2642 11.6273 32.2642 8.94879ZM4.58491 8.94879C4.58491 6.27025 5.54718 4.07873 7.4717 2.37421C9.28302 0.791439 11.717 5.34058e-05 14.7736 5.34058e-05C17.717 5.34058e-05 20.3774 1.52195 22.7547 4.56573C25.1321 7.60952 26.3208 11.5664 26.3208 16.4365C26.3208 21.3066 24.283 26.2984 20.2076 31.4119C16.1321 36.5255 9.90566 40.5433 1.52831 43.4653L3.8147e-06 39.4475C12.2264 33.4817 18.3396 25.4461 18.3396 15.3407C16.7547 17.167 14.8302 18.0801 12.566 18.0801C10.3019 18.0801 8.43397 17.2279 6.96227 15.5234C5.37737 13.8188 4.58491 11.6273 4.58491 8.94879Z" fill="#C6D0DB"/>
</svg>
