<svg width="16" height="16" viewBox="0 0 16 16" fill="none" xmlns="http://www.w3.org/2000/svg">
<path d="M7.35645 5.38124C7.35645 5.02499 7.64707 4.75937 7.99707 4.75937C8.35332 4.75937 8.64395 5.02499 8.64395 5.38124C8.64395 5.73749 8.35332 6.00624 7.99707 6.00624C7.64707 6.00624 7.35645 5.73749 7.35645 5.38124V5.38124ZM7.4002 6.49687H8.59395V11H7.4002V6.49687V6.49687Z" fill="#A1AAB6"/>
<path d="M8 2.375C9.50312 2.375 10.9156 2.95937 11.9781 4.02187C13.0406 5.08437 13.625 6.49688 13.625 8C13.625 9.50312 13.0406 10.9156 11.9781 11.9781C10.9156 13.0406 9.50312 13.625 8 13.625C6.49688 13.625 5.08437 13.0406 4.02187 11.9781C2.95937 10.9156 2.375 9.50312 2.375 8C2.375 6.49688 2.95937 5.08437 4.02187 4.02187C5.08437 2.95937 6.49688 2.375 8 2.375ZM8 1.5C4.40937 1.5 1.5 4.40937 1.5 8C1.5 11.5906 4.40937 14.5 8 14.5C11.5906 14.5 14.5 11.5906 14.5 8C14.5 4.40937 11.5906 1.5 8 1.5Z" fill="#A1AAB6"/>
</svg>
