<svg width="16" height="16" viewBox="0 0 16 16" fill="none" xmlns="http://www.w3.org/2000/svg">
<path d="M11.75 5.5H8.40625V10.0813C8.40625 10.3 8.2375 10.4875 8.01875 10.5C7.78438 10.5125 7.59375 10.325 7.59375 10.0938V5.5H4.25C3.5625 5.5 3 6.0625 3 6.75V13.25C3 13.9375 3.5625 14.5 4.25 14.5H11.75C12.4375 14.5 13 13.9375 13 13.25V6.75C13 6.0625 12.4375 5.5 11.75 5.5ZM8.40625 2.87813L9.90312 4.35313C10.0625 4.50938 10.3187 4.50938 10.4781 4.35C10.6344 4.19063 10.6344 3.93438 10.475 3.775L8.2875 1.61875C8.20938 1.54375 8.10625 1.50313 8.00313 1.50313C7.95 1.50313 7.89688 1.5125 7.84688 1.53438C7.8 1.55313 7.75625 1.58438 7.71875 1.61875L5.53125 3.775C5.37188 3.93125 5.36875 4.19063 5.52812 4.35C5.68437 4.50938 5.94375 4.5125 6.10313 4.35313L7.59375 2.87813V5.5H8.40625V2.87813Z" fill="#A1AAB6"/>
</svg>
