<svg width="56" height="48" viewBox="0 0 56 48" fill="#656E7A" xmlns="http://www.w3.org/2000/svg">
<path opacity="0.8" d="M1.73206 47L27.7128 2L53.6936 47H1.73206Z" stroke="#656E7A" stroke-width="2"/>
</svg>
